{
  "iisSettings": {
    "windowsAuthentication": false,
    "anonymousAuthentication": true,
    "iisExpress": {
      "applicationUrl": "http://localhost:5076/",
      "sslPort": 0
    }
  },
  "profiles": {
    "IIS Express": {
      "commandName": "IISExpress",
      "launchBrowser": true,
      "environmentVariables": {
        "Hosting:Environment": "Development"
      }
    },
    "web": {
      "commandName": "web",
      "environmentVariables": {
        "Hosting:Environment": "Development"
      }
    },
    "Docker": {
      "executablePath": "%WINDIR%\\System32\\WindowsPowerShell\\v1.0\\powershell.exe",
      "commandLineArgs": "-ExecutionPolicy RemoteSigned .\\Docker\\DockerTask.ps1 -Run -Environment $(Configuration) -Machine $(DockerMachineName) -ProjectFolder ."
    }
  }
}